…
**Step3-1 (等位基因名称一致)：** 当等位基因名称一致时，使用`inner_join()`会产生冗余数据，因此需要对数据进一步去冗余，去冗余方法为删除`HLA.x`和`HLA.y`相同的行，然后对细胞进行去重处理

**Step4 （对筛选出的细胞进一步筛分）：**调用`Find_Unclass_Cell.R`中的`Find_Unclass_Cell()`函数，根据细胞的来源对细胞区分，同时将无法区分的细胞单独保存，输出文件为，`cell_P1.csv`;  `cell_P2.csv`;  `cell_Unclass.csv` ，并且输出汇总数据`cell_HLA_Class.csv`，具体格式如下，

**cell_P1.csv**

```r
# A tibble: 206 x 2
   sample                   source
   <chr>                    <chr> 
 1 GAATCTGAGTCTGTCAATCATTCC P1    
 2 AAACATCGAACAACCACCGAAGTA P1    
 3 AAGGTACAAGCACCTCGGTGCGAA P1    
 4 ACATTGGCTATCAGCACATCAAGT P1   
# ... with 202 more rows
```

**cell_P2.csv**

```r
> aa
# A tibble: 404 x 2
   sample                   source
   <chr>                    <chr> 
 1 TTCACGCAAGGCTAACACTATGCA P2    
 2 AAACATCGGAACAGGCCACCTTAC P2    
 3 AACAACCAACAGATTCACCTCCAA P2    
 4 AACCGAGACTGAGCCAAAGAGATC P2    
# ... with 400 more rows
```
…
**cell_HLA_Class.csv**

```r
# A tibble: 857 x 6
   sample                   HLA.x     type.x  HLA.y     type.y  source
   <chr>                    <chr>     <chr>   <chr>     <chr>   <chr> 
 1 GAATCTGAGTCTGTCAATCATTCC A_allele1 A*02:06 A_allele2 A*02:10 P1    
 2 AAACATCGAACAACCACCGAAGTA B_allele1 B*13:02 B_allele2 B*40:06 P1    
 3 AAGGTACAAGCACCTCGGTGCGAA B_allele1 B*13:02 B_allele2 B*40:06 P1    
 4 ACATTGGCTATCAGCACATCAAGT B_allele1 B*13:02 B_allele2 B*40:06 P1    
# ... with 853 more rows
```
…
